[
  {
    "id": 0,
    "name": "Handmade coffee table",
    "picture": "images/coffee_table.jpg",
    "price": 6.85,
    "condition": "Excellent",
    "location": "Salem, Oregon"
  },
  {
    "id": 1,
    "name": "40x60 area rug",
    "picture": "images/area_rug.jpg",
    "price": 6.35,
    "condition": "Good",
    "location": "El Paso, Texas"
  },
  {
    "id": 2,
    "name": "iPad 4th-gen, 32GB WiFi",
    "picture": "images/ipad.jpg",
    "price": 4.85,
    "condition": "Excellent",
    "location": "Tooleville, West Virginia"
  },
  {
    "id": 3,
    "name": "Kenwood kac-7202",
    "picture": "images/kenwood.jpg",
    "price": 0.35,
    "condition": "Good",
    "location": "Freeburn, Idaho"
  },
  {
    "id": 4,
    "name": "Swivel rocking chair",
    "picture": "images/chair.jpg",
    "price": 1.50,
    "condition": "Good",
    "location": "Camas, Pennsylvania"
  },
  {
    "id": 5,
    "name": "Letter B",
    "picture": "images/letterB.jpg",
    "price": 0.35,
    "condition": "Like New",
    "location": "Alameda, California"
  },
  {
    "id": 6,
    "name": "Columbia women hiking shoes",
    "picture": "images/shoes.jpg",
    "price": 3.50,
    "condition": "Brand New",
    "location": "San Jose, California"
  },
  {
    "id": 7,
    "name": "AT&T Samsung Galaxy S7",
    "picture": "images/samsung.jpg",
    "price": 5.50,
    "condition": "Like New",
    "location": "Lisco, Alabama"
  }  
]
